{
  "artists" : {
    "href" : "https://api.spotify.com/v1/search?query=Drake&type=artist&market=CA&offset=0&limit=20",
    "items" : [ {
      "external_urls" : {
        "spotify" : "https://open.spotify.com/artist/3TVXtAsR1Inumwj472S9r4"
      },
      "followers" : {
        "href" : null,
        "total" : 13208895
      },
      "genres" : [ "canadian pop", "hip hop", "pop rap", "rap" ],
      "href" : "https://api.spotify.com/v1/artists/3TVXtAsR1Inumwj472S9r4",
      "id" : "3TVXtAsR1Inumwj472S9r4",
      "images" : [ {
        "height" : 640,
        "url" : "https://i.scdn.co/image/cb080366dc8af1fe4dc90c4b9959794794884c66",
        "width" : 640
      }, {
        "height" : 320,
        "url" : "https://i.scdn.co/image/6bd672a0f33705eda4b543c304c21a152f393291",
        "width" : 320
      }, {
        "height" : 160,
        "url" : "https://i.scdn.co/image/085ae2e76f402468fe9982851b51cf876e4f20fe",
        "width" : 160
      } ],
      "name" : "Drake",
      "popularity" : 100,
      "type" : "artist",
      "uri" : "spotify:artist:3TVXtAsR1Inumwj472S9r4"
    }, {
      "external_urls" : {
        "spotify" : "https://open.spotify.com/artist/5c3GLXai8YOMid29ZEuR9y"
      },
      "followers" : {
        "href" : null,
        "total" : 230833
      },
      "genres" : [ "anti-folk", "british folk", "chamber pop", "folk", "folk rock", "folk-pop", "freak folk", "indie folk", "indie pop", "indie rock", "melancholia", "neo mellow", "singer-songwriter", "slow core", "traditional folk" ],
      "href" : "https://api.spotify.com/v1/artists/5c3GLXai8YOMid29ZEuR9y",
      "id" : "5c3GLXai8YOMid29ZEuR9y",
      "images" : [ {
        "height" : 1484,
        "url" : "https://i.scdn.co/image/d364b498f85ae764cd278fbba9a8ed7f00c3e434",
        "width" : 1000
      }, {
        "height" : 950,
        "url" : "https://i.scdn.co/image/087fb05851e498c2791ca99000acf35b0fd49f19",
        "width" : 640
      }, {
        "height" : 297,
        "url" : "https://i.scdn.co/image/9a74a7d885abe5da94ac812546d0146cfe4a1ceb",
        "width" : 200
      }, {
        "height" : 95,
        "url" : "https://i.scdn.co/image/267080662cf3c019ea8020a4e0e8dd5a7be4d909",
        "width" : 64
      } ],
      "name" : "Nick Drake",
      "popularity" : 65,
      "type" : "artist",
      "uri" : "spotify:artist:5c3GLXai8YOMid29ZEuR9y"
    }, {
      "external_urls" : {
        "spotify" : "https://open.spotify.com/artist/29ijED2bnnprp2TciAK1aO"
      },
      "followers" : {
        "href" : null,
        "total" : 29204
      },
      "genres" : [ "contemporary country", "country", "country road", "lift kit", "modern country rock" ],
      "href" : "https://api.spotify.com/v1/artists/29ijED2bnnprp2TciAK1aO",
      "id" : "29ijED2bnnprp2TciAK1aO",
      "images" : [ {
        "height" : 640,
        "url" : "https://i.scdn.co/image/7499ce17c8f09fe406c8de2cc514bef4563d789c",
        "width" : 640
      }, {
        "height" : 320,
        "url" : "https://i.scdn.co/image/4c16e9441abc02b569e82e7f655b8307022b316d",
        "width" : 320
      }, {
        "height" : 160,
        "url" : "https://i.scdn.co/image/8b7d34461462466d5a5b32d9d7a3a94729767c13",
        "width" : 160
      } ],
      "name" : "Drake White",
      "popularity" : 58,
      "type" : "artist",
      "uri" : "spotify:artist:29ijED2bnnprp2TciAK1aO"
    }, {
      "external_urls" : {
        "spotify" : "https://open.spotify.com/artist/03ilIKH0i08IxmjKcn63ne"
      },
      "followers" : {
        "href" : null,
        "total" : 133765
      },
      "genres" : [ "pop", "pop christmas", "post-teen pop" ],
      "href" : "https://api.spotify.com/v1/artists/03ilIKH0i08IxmjKcn63ne",
      "id" : "03ilIKH0i08IxmjKcn63ne",
      "images" : [ {
        "height" : 640,
        "url" : "https://i.scdn.co/image/8a5b3d79e60dfd8c024be2cae7fe7a9d78ed01b2",
        "width" : 640
      }, {
        "height" : 320,
        "url" : "https://i.scdn.co/image/791a797e5a6e3b33eaa6a2fbf44cf99149c061a1",
        "width" : 320
      }, {
        "height" : 160,
        "url" : "https://i.scdn.co/image/7b002b864455e66bad45907252ab3a82c5c20c91",
        "width" : 160
      } ],
      "name" : "Drake Bell",
      "popularity" : 56,
      "type" : "artist",
      "uri" : "spotify:artist:03ilIKH0i08IxmjKcn63ne"
    }, {
      "external_urls" : {
        "spotify" : "https://open.spotify.com/artist/3KLA7mvD10XxcjRbo3uTdB"
      },
      "followers" : {
        "href" : null,
        "total" : 2880
      },
      "genres" : [ "epicore", "scorecore", "soundtrack", "video game music" ],
      "href" : "https://api.spotify.com/v1/artists/3KLA7mvD10XxcjRbo3uTdB",
      "id" : "3KLA7mvD10XxcjRbo3uTdB",
      "images" : [ {
        "height" : 640,
        "url" : "https://i.scdn.co/image/742d134e481e7818f1449d1e299eb8664943c271",
        "width" : 640
      }, {
        "height" : 300,
        "url" : "https://i.scdn.co/image/90ae66cbc93d9457a92f1dafbf555bd9c8be3c5d",
        "width" : 300
      }, {
        "height" : 64,
        "url" : "https://i.scdn.co/image/aad85593b66d67225978ebf55b5cc2501e49c7d5",
        "width" : 64
      } ],
      "name" : "Christopher Drake",
      "popularity" : 48,
      "type" : "artist",
      "uri" : "spotify:artist:3KLA7mvD10XxcjRbo3uTdB"
    }, {
      "external_urls" : {
        "spotify" : "https://open.spotify.com/artist/4W9G3Vnt9eXWTo4VeOQkSa"
      },
      "followers" : {
        "href" : null,
        "total" : 1026
      },
      "genres" : [ ],
      "href" : "https://api.spotify.com/v1/artists/4W9G3Vnt9eXWTo4VeOQkSa",
      "id" : "4W9G3Vnt9eXWTo4VeOQkSa",
      "images" : [ {
        "height" : 640,
        "url" : "https://i.scdn.co/image/886952363dbedd6b943f759814a6324672d25a39",
        "width" : 640
      }, {
        "height" : 300,
        "url" : "https://i.scdn.co/image/a3b9b682aa97d64100d6eab2e72334c5dda45a46",
        "width" : 300
      }, {
        "height" : 64,
        "url" : "https://i.scdn.co/image/8a8128c13c1493de126891a10bcf65887d3b633e",
        "width" : 64
      } ],
      "name" : "Drake",
      "popularity" : 33,
      "type" : "artist",
      "uri" : "spotify:artist:4W9G3Vnt9eXWTo4VeOQkSa"
    }, {
      "external_urls" : {
        "spotify" : "https://open.spotify.com/artist/0Jm1S6ygzF2F9XYWJCf6Hu"
      },
      "followers" : {
        "href" : null,
        "total" : 1132
      },
      "genres" : [ "deep underground hip hop" ],
      "href" : "https://api.spotify.com/v1/artists/0Jm1S6ygzF2F9XYWJCf6Hu",
      "id" : "0Jm1S6ygzF2F9XYWJCf6Hu",
      "images" : [ {
        "height" : 640,
        "url" : "https://i.scdn.co/image/f8d453bd1fa750d9cad5a4a090338ca7333b0d3a",
        "width" : 640
      }, {
        "height" : 320,
        "url" : "https://i.scdn.co/image/b19d9e4451b00e3e03807c91bfc9fd44bebc6771",
        "width" : 320
      }, {
        "height" : 160,
        "url" : "https://i.scdn.co/image/1ea17f66c066deedde28b574e8c6bbf9743245d6",
        "width" : 160
      } ],
      "name" : "Drake Chisholm",
      "popularity" : 39,
      "type" : "artist",
      "uri" : "spotify:artist:0Jm1S6ygzF2F9XYWJCf6Hu"
    }, {
      "external_urls" : {
        "spotify" : "https://open.spotify.com/artist/2GQCjNcjT224mKuLYJ1FS8"
      },
      "followers" : {
        "href" : null,
        "total" : 4
      },
      "genres" : [ ],
      "href" : "https://api.spotify.com/v1/artists/2GQCjNcjT224mKuLYJ1FS8",
      "id" : "2GQCjNcjT224mKuLYJ1FS8",
      "images" : [ ],
      "name" : "Drake",
      "popularity" : 33,
      "type" : "artist",
      "uri" : "spotify:artist:2GQCjNcjT224mKuLYJ1FS8"
    }, {
      "external_urls" : {
        "spotify" : "https://open.spotify.com/artist/5HS2kOCWsYhB2BxDM9k0iH"
      },
      "followers" : {
        "href" : null,
        "total" : 2
      },
      "genres" : [ ],
      "href" : "https://api.spotify.com/v1/artists/5HS2kOCWsYhB2BxDM9k0iH",
      "id" : "5HS2kOCWsYhB2BxDM9k0iH",
      "images" : [ ],
      "name" : "Mixed by Steven Drake with other Odds",
      "popularity" : 23,
      "type" : "artist",
      "uri" : "spotify:artist:5HS2kOCWsYhB2BxDM9k0iH"
    }, {
      "external_urls" : {
        "spotify" : "https://open.spotify.com/artist/2y7pPMQioLwMFUKhK9Pyow"
      },
      "followers" : {
        "href" : null,
        "total" : 173
      },
      "genres" : [ ],
      "href" : "https://api.spotify.com/v1/artists/2y7pPMQioLwMFUKhK9Pyow",
      "id" : "2y7pPMQioLwMFUKhK9Pyow",
      "images" : [ {
        "height" : 640,
        "url" : "https://i.scdn.co/image/3f1ab5b6758b3fd2fc0304d29c5ec9642d7af5b8",
        "width" : 640
      }, {
        "height" : 320,
        "url" : "https://i.scdn.co/image/87abc2e678d5130086245bab3ae1e8af3ab9de69",
        "width" : 320
      }, {
        "height" : 160,
        "url" : "https://i.scdn.co/image/bcbed551d66af019b94f31331d18c04459d2575c",
        "width" : 160
      } ],
      "name" : "Eleni Drake",
      "popularity" : 34,
      "type" : "artist",
      "uri" : "spotify:artist:2y7pPMQioLwMFUKhK9Pyow"
    }, {
      "external_urls" : {
        "spotify" : "https://open.spotify.com/artist/5wzXzlWJdkALT4P8pywiau"
      },
      "followers" : {
        "href" : null,
        "total" : 56
      },
      "genres" : [ ],
      "href" : "https://api.spotify.com/v1/artists/5wzXzlWJdkALT4P8pywiau",
      "id" : "5wzXzlWJdkALT4P8pywiau",
      "images" : [ ],
      "name" : "Seth Drake",
      "popularity" : 34,
      "type" : "artist",
      "uri" : "spotify:artist:5wzXzlWJdkALT4P8pywiau"
    }, {
      "external_urls" : {
        "spotify" : "https://open.spotify.com/artist/1789Un2gEvELbBTnHoS9Rl"
      },
      "followers" : {
        "href" : null,
        "total" : 3295
      },
      "genres" : [ ],
      "href" : "https://api.spotify.com/v1/artists/1789Un2gEvELbBTnHoS9Rl",
      "id" : "1789Un2gEvELbBTnHoS9Rl",
      "images" : [ {
        "height" : 300,
        "url" : "https://i.scdn.co/image/83e02935a38a48b49ab11cea406cb9bf979122dd",
        "width" : 500
      }, {
        "height" : 120,
        "url" : "https://i.scdn.co/image/93617385a3a0f993f167ca654fc76d83d5584043",
        "width" : 200
      }, {
        "height" : 38,
        "url" : "https://i.scdn.co/image/0e9fd34c56c4103e72fdbffc8d0980a3baea429f",
        "width" : 63
      } ],
      "name" : "Molly Drake",
      "popularity" : 32,
      "type" : "artist",
      "uri" : "spotify:artist:1789Un2gEvELbBTnHoS9Rl"
    }, {
      "external_urls" : {
        "spotify" : "https://open.spotify.com/artist/3uCTdq9rOnPCAlJMc4OzGn"
      },
      "followers" : {
        "href" : null,
        "total" : 1149
      },
      "genres" : [ ],
      "href" : "https://api.spotify.com/v1/artists/3uCTdq9rOnPCAlJMc4OzGn",
      "id" : "3uCTdq9rOnPCAlJMc4OzGn",
      "images" : [ {
        "height" : 226,
        "url" : "https://i.scdn.co/image/1ca5bc28ffd6eaa4b8941dfa7a3da0ac92e064f0",
        "width" : 200
      }, {
        "height" : 72,
        "url" : "https://i.scdn.co/image/07a4d2e85091babdbcbca0866b0ebdfcf6e3cc1c",
        "width" : 64
      } ],
      "name" : "Julius Drake",
      "popularity" : 30,
      "type" : "artist",
      "uri" : "spotify:artist:3uCTdq9rOnPCAlJMc4OzGn"
    }, {
      "external_urls" : {
        "spotify" : "https://open.spotify.com/artist/6GqRs6YKqlKv8nlGAAnKwr"
      },
      "followers" : {
        "href" : null,
        "total" : 119
      },
      "genres" : [ "alternative ccm" ],
      "href" : "https://api.spotify.com/v1/artists/6GqRs6YKqlKv8nlGAAnKwr",
      "id" : "6GqRs6YKqlKv8nlGAAnKwr",
      "images" : [ {
        "height" : 640,
        "url" : "https://i.scdn.co/image/f92571ebe8bc826a35a476718d142b78eef65fa7",
        "width" : 640
      }, {
        "height" : 300,
        "url" : "https://i.scdn.co/image/7beffdb4f3ab0a6d2e8f6dc602ee2c48e4a41318",
        "width" : 300
      }, {
        "height" : 64,
        "url" : "https://i.scdn.co/image/efe00784dfeb9c2df0abd9c180ec957d8721a95d",
        "width" : 64
      } ],
      "name" : "Nathan Drake",
      "popularity" : 19,
      "type" : "artist",
      "uri" : "spotify:artist:6GqRs6YKqlKv8nlGAAnKwr"
    }, {
      "external_urls" : {
        "spotify" : "https://open.spotify.com/artist/6aBKK0AnKcYmyPdS2Zp5qR"
      },
      "followers" : {
        "href" : null,
        "total" : 102
      },
      "genres" : [ ],
      "href" : "https://api.spotify.com/v1/artists/6aBKK0AnKcYmyPdS2Zp5qR",
      "id" : "6aBKK0AnKcYmyPdS2Zp5qR",
      "images" : [ ],
      "name" : "Drake",
      "popularity" : 17,
      "type" : "artist",
      "uri" : "spotify:artist:6aBKK0AnKcYmyPdS2Zp5qR"
    }, {
      "external_urls" : {
        "spotify" : "https://open.spotify.com/artist/7rvB7ONJSqlmaCrcbhelir"
      },
      "followers" : {
        "href" : null,
        "total" : 85
      },
      "genres" : [ ],
      "href" : "https://api.spotify.com/v1/artists/7rvB7ONJSqlmaCrcbhelir",
      "id" : "7rvB7ONJSqlmaCrcbhelir",
      "images" : [ {
        "height" : 640,
        "url" : "https://i.scdn.co/image/5631ebc4673a6b69f1a197ac8c11ee8477070561",
        "width" : 640
      }, {
        "height" : 300,
        "url" : "https://i.scdn.co/image/96951d58ba37d73b4df60bd4c1c2d7b1cf44a829",
        "width" : 300
      }, {
        "height" : 64,
        "url" : "https://i.scdn.co/image/cb8620b792bbbfee20432b10426c40409f95a08e",
        "width" : 64
      } ],
      "name" : "Jamie Drake",
      "popularity" : 21,
      "type" : "artist",
      "uri" : "spotify:artist:7rvB7ONJSqlmaCrcbhelir"
    }, {
      "external_urls" : {
        "spotify" : "https://open.spotify.com/artist/1xDIDfyzRo8HNGsLp4JfzO"
      },
      "followers" : {
        "href" : null,
        "total" : 183
      },
      "genres" : [ ],
      "href" : "https://api.spotify.com/v1/artists/1xDIDfyzRo8HNGsLp4JfzO",
      "id" : "1xDIDfyzRo8HNGsLp4JfzO",
      "images" : [ ],
      "name" : "Ludwig Von Drake",
      "popularity" : 27,
      "type" : "artist",
      "uri" : "spotify:artist:1xDIDfyzRo8HNGsLp4JfzO"
    }, {
      "external_urls" : {
        "spotify" : "https://open.spotify.com/artist/6Iq7pvBye73XCoeUIxGuZP"
      },
      "followers" : {
        "href" : null,
        "total" : 78
      },
      "genres" : [ ],
      "href" : "https://api.spotify.com/v1/artists/6Iq7pvBye73XCoeUIxGuZP",
      "id" : "6Iq7pvBye73XCoeUIxGuZP",
      "images" : [ {
        "height" : 640,
        "url" : "https://i.scdn.co/image/5f152f7f0d507cb84782529cc42e26b3be432142",
        "width" : 640
      }, {
        "height" : 300,
        "url" : "https://i.scdn.co/image/d119f45fd3eb74a318ba1c242160e0356acba00f",
        "width" : 300
      }, {
        "height" : 64,
        "url" : "https://i.scdn.co/image/77e44373df91b98203b92c2b2c222a38070385d5",
        "width" : 64
      } ],
      "name" : "Cordell Drake",
      "popularity" : 22,
      "type" : "artist",
      "uri" : "spotify:artist:6Iq7pvBye73XCoeUIxGuZP"
    }, {
      "external_urls" : {
        "spotify" : "https://open.spotify.com/artist/15QFACW5Ds2oQABA1Atqxs"
      },
      "followers" : {
        "href" : null,
        "total" : 328
      },
      "genres" : [ ],
      "href" : "https://api.spotify.com/v1/artists/15QFACW5Ds2oQABA1Atqxs",
      "id" : "15QFACW5Ds2oQABA1Atqxs",
      "images" : [ {
        "height" : 640,
        "url" : "https://i.scdn.co/image/a455f16540f6cb16e80fed67392f782d700a157a",
        "width" : 640
      }, {
        "height" : 300,
        "url" : "https://i.scdn.co/image/afcb0263096cf7c6b7b7c5d293655c5499900801",
        "width" : 300
      }, {
        "height" : 64,
        "url" : "https://i.scdn.co/image/d385e723fe702693e6eb32009f43faada7e27f61",
        "width" : 64
      } ],
      "name" : "Pete Drake",
      "popularity" : 21,
      "type" : "artist",
      "uri" : "spotify:artist:15QFACW5Ds2oQABA1Atqxs"
    }, {
      "external_urls" : {
        "spotify" : "https://open.spotify.com/artist/6obKknZATkNWQVnN5aN3Wq"
      },
      "followers" : {
        "href" : null,
        "total" : 59
      },
      "genres" : [ ],
      "href" : "https://api.spotify.com/v1/artists/6obKknZATkNWQVnN5aN3Wq",
      "id" : "6obKknZATkNWQVnN5aN3Wq",
      "images" : [ {
        "height" : 640,
        "url" : "https://i.scdn.co/image/2deb0cf2b15bff86c796ef4d4cc9178c443dc5e3",
        "width" : 640
      }, {
        "height" : 300,
        "url" : "https://i.scdn.co/image/05d86c00567435993a8155c764bd61cfa58623c3",
        "width" : 300
      }, {
        "height" : 64,
        "url" : "https://i.scdn.co/image/57f63badd451c7da945dff28f8818712f27531cb",
        "width" : 64
      } ],
      "name" : "Gabrielle Drake",
      "popularity" : 24,
      "type" : "artist",
      "uri" : "spotify:artist:6obKknZATkNWQVnN5aN3Wq"
    } ],
    "limit" : 20,
    "next" : "https://api.spotify.com/v1/search?query=Drake&type=artist&market=CA&offset=20&limit=20",
    "offset" : 0,
    "previous" : null,
    "total" : 390
  }
}
